607 Assignment 10A Dylan Gold
…
tidy_books <- austen_books() %>%
  group_by(book) %>%
  mutate(
    linenumber = row_number(),
    chapter = cumsum(str_detect(text, 
                                regex("^chapter [\\divxlc]", 
                                      ignore_case = TRUE)))) %>%
  ungroup() %>%
  unnest_tokens(word, text)

get_sentiments("nrc")

# A tibble: 13,872 × 2
   word        sentiment
   <chr>       <chr>    
 1 abacus      trust    
 2 abandon     fear     
 3 abandon     negative 
 4 abandon     sadness  
 5 abandoned   anger    
 6 abandoned   fear     
 7 abandoned   negative 
 8 abandoned   sadness  
 9 abandonment anger    
10 abandonment fear     
# ℹ 13,862 more rows
…
This will give us a count of all the words with the joy sentiment in the Emma book.

For the nrc lexicon citation:

This dataset was published in Saif M. Mohammad and Peter Turney. (2013), ``Crowdsourcing a Word-Emotion Association Lexicon.’’ Computational Intelligence, 29(3): 436-465.

nrc_joy <- get_sentiments("nrc") %>% 
  filter(sentiment == "joy")

tidy_books %>%
  filter(book == "Emma") %>%
  inner_join(nrc_joy) %>%
  count(word, sort = TRUE)

# A tibble: 301 × 2
   word          n
   <chr>     <int>
 1 good        359
 2 friend      166
 3 hope        143
 4 happy       125
 5 love        117
 6 deal         92
 7 found        92
 8 present      89
 9 kind         82
10 happiness    76
# ℹ 291 more rows
…
